module gitlab.com/ideaplexus/changelog

go 1.21

require (
	github.com/jstemmer/go-junit-report v1.0.0
	github.com/mattn/goveralls v0.0.12
	github.com/russross/blackfriday/v2 v2.1.0
	github.com/spf13/cobra v1.7.0
	github.com/spf13/pflag v1.0.5
	github.com/stretchr/testify v1.8.4
	golang.org/x/tools v0.13.0
)

require (
	github.com/davecgh/go-spew v1.1.1 // indirect
	github.com/inconshreveable/mousetrap v1.1.0 // indirect
	github.com/pmezard/go-difflib v1.0.0 // indirect
	golang.org/x/mod v0.12.0 // indirect
	golang.org/x/sys v0.12.0 // indirect
	gopkg.in/yaml.v3 v3.0.1 // indirect
)
